Tidyverse Consolidation Homework - Miles Drake's CodeClan Homework
…
## [1] 188

tweets_info <- read_csv("data/code_clan_info.csv")
tweets_joined <- inner_join(tweets, tweets_info, by = "tweet_id")

tweets_joined

## # A tibble: 234 x 41
##    tweet_id user_id created_at screen_name text  source display_text_wi~
##       <dbl>   <dbl> <chr>      <chr>       <chr> <chr>             <dbl>
##  1      347  3.25e9 23/05/19 ~ CodeClanSc~ @Cod~ Twitt~              100
##  2      346  3.25e9 22/05/19 ~ CodeClanSc~ We t~ Twitt~              148
##  3      345  3.25e9 22/05/19 ~ CodeClanSc~ A we~ Twitt~              140
##  4      344  3.25e9 22/05/19 ~ CodeClanSc~ New ~ Twitt~              140
##  5      343  3.25e9 22/05/19 ~ CodeClanSc~ Scot~ Twitt~              196
##  6      342  3.25e9 21/05/19 ~ CodeClanSc~ RT @~ Twitt~              140
##  7      341  3.25e9 21/05/19 ~ CodeClanSc~ @Tec~ Twitt~               29
##  8      340  3.25e9 21/05/19 ~ CodeClanSc~ Cong~ Twitt~              139
##  9      339  3.25e9 21/05/19 ~ CodeClanSc~ Is f~ Twitt~              261
## 10      338  3.25e9 21/05/19 ~ CodeClanSc~ Scot~ Twitt~              233
## # ... with 224 more rows, and 34 more variables: reply_to_status_id <dbl>,
## #   reply_to_user_id <dbl>, reply_to_screen_name <chr>, is_quote <lgl>,
## #   is_retweet <lgl>, favorite_count <dbl>, retweet_count <dbl>,
## #   quote_count <lgl>, reply_count <lgl>, hashtags <chr>, symbols <lgl>,
## #   urls_url <chr>, urls_t.co <chr>, urls_expanded_url <chr>, media_type <chr>,
## #   retweet_source <chr>, retweet_favorite_count <dbl>,
## #   retweet_retweet_count <dbl>, retweet_user_id <dbl>, retweet_location <chr>,
## #   status_url <chr>, name <chr>, location <chr>, description <chr>, url <chr>,
## #   protected <lgl>, followers_count <dbl>, friends_count <dbl>,
…
codeclan_hashtags <- tweets_joined %>% 
  select(
    tweet_id,
    hashtags
  ) %>% 
  filter(
    is.na(hashtags) == FALSE
  ) %>% 
  mutate(
    hashtags = str_to_lower(hashtags)
  )

codeclan_hashtags

## # A tibble: 117 x 2
##    tweet_id hashtags          
##       <dbl> <chr>             
##  1      345 dundee            
##  2      344 tech              
##  3      342 techmums          
##  4      341 techmums          
##  5      340 techmums          
##  6      336 techmums          
##  7      335 forensicshoeprints
##  8      332 forensicshoeprints
##  9      331 forensicshoeprints
## 10      329 inverness         
## # ... with 107 more rows
…
