dplyr Homework - Miles Drake's CodeClan Homework
…
drinks

## # A tibble: 242 x 18
##    Beverage_catego~ Beverage Beverage_prep Calories `Total Fat (g)`
##    <chr>            <chr>    <chr>            <dbl> <chr>          
##  1 Coffee           Brewed ~ Short                3 0.1            
##  2 Coffee           Brewed ~ Tall                 4 0.1            
##  3 Coffee           Brewed ~ Grande               5 0.1            
##  4 Coffee           Brewed ~ Venti                5 0.1            
##  5 Classic Espress~ Caffè L~ Short Nonfat~       70 0.1            
##  6 Classic Espress~ Caffè L~ 2% Milk            100 3.5            
##  7 Classic Espress~ Caffè L~ Soymilk             70 2.5            
##  8 Classic Espress~ Caffè L~ Tall Nonfat ~      100 0.2            
##  9 Classic Espress~ Caffè L~ 2% Milk            150 6              
## 10 Classic Espress~ Caffè L~ Soymilk            110 4.5            
## # ... with 232 more rows, and 13 more variables: `Trans Fat (g)` <dbl>,
## #   `Saturated Fat (g)` <dbl>, `Sodium (mg)` <dbl>, `Total Carbohydrates
## #   (g)` <dbl>, `Cholesterol (mg)` <dbl>, `Dietary Fibre (g)` <dbl>, `Sugars
## #   (g)` <dbl>, `Protein (g)` <dbl>, `Vitamin A (% DV)` <chr>, `Vitamin C (%
## #   DV)` <chr>, `Calcium (% DV)` <chr>, `Iron (% DV)` <chr>, `Caffeine
## #   (mg)` <chr>
…
## # A tibble: 1 x 18
##   Beverage_catego~ Beverage Beverage_prep Calories `Total Fat (g)`
##   <chr>            <chr>    <chr>            <dbl> <chr>          
## 1 Signature Espre~ White C~ 2% Milk            510 15             
## # ... with 13 more variables: `Trans Fat (g)` <dbl>, `Saturated Fat (g)` <dbl>,
## #   `Sodium (mg)` <dbl>, `Total Carbohydrates (g)` <dbl>, `Cholesterol
## #   (mg)` <dbl>, `Dietary Fibre (g)` <dbl>, `Sugars (g)` <dbl>, `Protein
## #   (g)` <dbl>, `Vitamin A (% DV)` <chr>, `Vitamin C (% DV)` <chr>, `Calcium (%
## #   DV)` <chr>, `Iron (% DV)` <chr>, `Caffeine (mg)` <chr>

select(drinks, Beverage_category, Beverage, Beverage_prep, Calories)

## # A tibble: 242 x 4
##    Beverage_category       Beverage      Beverage_prep     Calories
##    <chr>                   <chr>         <chr>                <dbl>
##  1 Coffee                  Brewed Coffee Short                    3
##  2 Coffee                  Brewed Coffee Tall                     4
##  3 Coffee                  Brewed Coffee Grande                   5
##  4 Coffee                  Brewed Coffee Venti                    5
##  5 Classic Espresso Drinks Caffè Latte   Short Nonfat Milk       70
##  6 Classic Espresso Drinks Caffè Latte   2% Milk                100
##  7 Classic Espresso Drinks Caffè Latte   Soymilk                 70
##  8 Classic Espresso Drinks Caffè Latte   Tall Nonfat Milk       100
##  9 Classic Espresso Drinks Caffè Latte   2% Milk                150
## 10 Classic Espresso Drinks Caffè Latte   Soymilk                110
## # ... with 232 more rows

filter(
  drinks,
  Beverage_category == "Classic Espresso Drinks"
)

## # A tibble: 58 x 18
##    Beverage_catego~ Beverage Beverage_prep Calories `Total Fat (g)`
##    <chr>            <chr>    <chr>            <dbl> <chr>          
##  1 Classic Espress~ Caffè L~ Short Nonfat~       70 0.1            
##  2 Classic Espress~ Caffè L~ 2% Milk            100 3.5            
##  3 Classic Espress~ Caffè L~ Soymilk             70 2.5            
##  4 Classic Espress~ Caffè L~ Tall Nonfat ~      100 0.2            
##  5 Classic Espress~ Caffè L~ 2% Milk            150 6              
##  6 Classic Espress~ Caffè L~ Soymilk            110 4.5            
##  7 Classic Espress~ Caffè L~ Grande Nonfa~      130 0.3            
##  8 Classic Espress~ Caffè L~ 2% Milk            190 7              
##  9 Classic Espress~ Caffè L~ Soymilk            150 5              
## 10 Classic Espress~ Caffè L~ Venti Nonfat~      170 0.4            
## # ... with 48 more rows, and 13 more variables: `Trans Fat (g)` <dbl>,
## #   `Saturated Fat (g)` <dbl>, `Sodium (mg)` <dbl>, `Total Carbohydrates
## #   (g)` <dbl>, `Cholesterol (mg)` <dbl>, `Dietary Fibre (g)` <dbl>, `Sugars
## #   (g)` <dbl>, `Protein (g)` <dbl>, `Vitamin A (% DV)` <chr>, `Vitamin C (%
## #   DV)` <chr>, `Calcium (% DV)` <chr>, `Iron (% DV)` <chr>, `Caffeine
## #   (mg)` <chr>
…
drink_calories

## # A tibble: 242 x 5
##    Beverage_category    Beverage            Beverage_prep  Calories calorie_diff
##    <chr>                <chr>               <chr>             <dbl>        <dbl>
##  1 Signature Espresso ~ White Chocolate Mo~ 2% Milk             510          375
##  2 Frappuccino® Blende~ Java Chip (Without~ Whole Milk          460          325
##  3 Signature Espresso ~ White Chocolate Mo~ Soymilk             460          325
##  4 Signature Espresso ~ White Chocolate Mo~ Venti Nonfat ~      450          315
##  5 Tazo® Tea Drinks     Tazo® Green Tea La~ 2% Milk             450          315
##  6 Frappuccino® Blende~ Java Chip (Without~ Soymilk             430          295
##  7 Frappuccino® Blende~ Java Chip (Without~ Venti Nonfat ~      420          285
##  8 Signature Espresso ~ White Chocolate Mo~ 2% Milk             400          265
##  9 Frappuccino® Blende~ Mocha (Without Whi~ Whole Milk          390          255
## 10 Tazo® Tea Drinks     Tazo® Green Tea La~ Soymilk             390          255
## # ... with 232 more rows

drinks_grouped <- as_tibble(
  drink_calories %>%
    group_by(Beverage_category)
)

drinks_grouped

## # A tibble: 242 x 5
##    Beverage_category    Beverage            Beverage_prep  Calories calorie_diff
##    <chr>                <chr>               <chr>             <dbl>        <dbl>
##  1 Signature Espresso ~ White Chocolate Mo~ 2% Milk             510          375
##  2 Frappuccino® Blende~ Java Chip (Without~ Whole Milk          460          325
##  3 Signature Espresso ~ White Chocolate Mo~ Soymilk             460          325
##  4 Signature Espresso ~ White Chocolate Mo~ Venti Nonfat ~      450          315
##  5 Tazo® Tea Drinks     Tazo® Green Tea La~ 2% Milk             450          315
##  6 Frappuccino® Blende~ Java Chip (Without~ Soymilk             430          295
##  7 Frappuccino® Blende~ Java Chip (Without~ Venti Nonfat ~      420          285
##  8 Signature Espresso ~ White Chocolate Mo~ 2% Milk             400          265
##  9 Frappuccino® Blende~ Mocha (Without Whi~ Whole Milk          390          255
## 10 Tazo® Tea Drinks     Tazo® Green Tea La~ Soymilk             390          255
## # ... with 232 more rows
…
