Dog Owners' Survey - Miles Drake's CodeClan Homework
…
Miles Drake's CodeClan Homework

DE3 (data analysis) cohort

Dog Owners' Survey

The dog owners’ survey is a free-hand data set, comprised of British dog owners. This data set collates the self-reported size, sex, and age of their dogs; the amount that they spend on dog food (in GBP); and the respondant’s contact information.

Complete Data Set

## # A tibble: 298 x 9
##       id title first_name last_name email amount_spent_on~ dog_size dog_male
##    <dbl> <chr> <chr>      <chr>     <chr>            <dbl>    <dbl> <lgl>   
##  1     1 Mrs   Frasquito  Dene      fden~            80.0         1 TRUE    
##  2     2 Ms    Lawrence   Kardos    lkar~            66.3         4 TRUE    
##  3     3 Rev   Lanna      Wintersg~ lwin~            25.8         3 FALSE   
##  4     4 Rev   Richmound  Kimmitt   rkim~            50.8         2 TRUE    
##  5     5 Rev   Valeda     Dallender vdal~            83.4         4 FALSE   
##  6     6 Hon   Duky       Cavell    dcav~            80.2         4 TRUE    
##  7     7 Rev   Neal       Gabbetis  ngab~            98.6         3 TRUE    
##  8     8 Ms    Farrel     Swindin   fswi~            64.2         1 TRUE    
##  9     9 Dr    Latrena    Heinsh    lhei~             7.44        4 FALSE   
## 10    10 Mrs   Josh       Daunay    jdau~            55.8         2 TRUE    
## # ... with 288 more rows, and 1 more variable: dog_age <dbl>
…
