World Bank Data - Miles Drake's CodeClan Homework
…
sum(
  is.na(women_na$percent)
)

## [1] 10466

women <- women %>% 
  filter(
    !is.na(percent)
  )

women

## # A tibble: 5,110 x 4
##    country_name country_code year  percent
##    <chr>        <chr>        <chr>   <dbl>
##  1 Afghanistan  AFG          1990      3.7
##  2 Afghanistan  AFG          2005     27.3
##  3 Afghanistan  AFG          2006     27.3
##  4 Afghanistan  AFG          2007     27.7
##  5 Afghanistan  AFG          2008     27.7
##  6 Afghanistan  AFG          2009     27.3
##  7 Afghanistan  AFG          2010     27.7
##  8 Afghanistan  AFG          2011     27.7
##  9 Afghanistan  AFG          2012     27.7
## 10 Afghanistan  AFG          2013     27.7
## # ... with 5,100 more rows
…
women <- women %>%
  mutate(
    zscore = scores(percent),
    is_outlier = zscore < -3 | zscore > 3,
    zscore = round(zscore, 2)
  )

filter(
  women,
  is_outlier
)

## # A tibble: 35 x 6
##    country_name country_code year  percent zscore is_outlier
##    <chr>        <chr>        <chr>   <dbl>  <dbl> <lgl>     
##  1 Andorra      AND          2011     50     3.27 TRUE      
##  2 Andorra      AND          2012     50     3.27 TRUE      
##  3 Andorra      AND          2013     50     3.27 TRUE      
##  4 Andorra      AND          2014     50     3.27 TRUE      
##  5 Bolivia      BOL          2014     53.1   3.57 TRUE      
##  6 Bolivia      BOL          2015     53.1   3.57 TRUE      
##  7 Bolivia      BOL          2016     53.1   3.57 TRUE      
##  8 Bolivia      BOL          2017     53.1   3.57 TRUE      
##  9 Bolivia      BOL          2018     53.1   3.57 TRUE      
## 10 Cuba         CUB          2013     48.9   3.16 TRUE      
## # ... with 25 more rows
…
