Data Types - Miles Drake's CodeClan Homework
…
Extension

# help(package="tidyquant")

aapl_stock_prices<-tq_get("AAPL", get="stock.prices",from="2020-01-01")
aapl_stock_prices[,c("date","close")]

## # A tibble: 62 x 2
##    date       close
##    <date>     <dbl>
##  1 2020-01-02  300.
##  2 2020-01-03  297.
##  3 2020-01-06  300.
##  4 2020-01-07  298.
##  5 2020-01-08  303.
##  6 2020-01-09  310.
##  7 2020-01-10  310.
##  8 2020-01-13  317.
##  9 2020-01-14  313.
## 10 2020-01-15  311.
## # ... with 52 more rows

subset(aapl_stock_prices,close>mean(close))

## # A tibble: 38 x 8
##    symbol date        open  high   low close   volume adjusted
##    <chr>  <date>     <dbl> <dbl> <dbl> <dbl>    <dbl>    <dbl>
##  1 AAPL   2020-01-02  296.  301.  295.  300. 33870100     300.
##  2 AAPL   2020-01-03  297.  301.  296.  297. 36580700     297.
##  3 AAPL   2020-01-06  294.  300.  293.  300. 29596800     299.
##  4 AAPL   2020-01-07  300.  301.  297.  298. 27218000     298.
##  5 AAPL   2020-01-08  297.  304.  297.  303. 33019800     302.
##  6 AAPL   2020-01-09  307.  310.  306.  310. 42527100     309.
##  7 AAPL   2020-01-10  311.  313.  308.  310. 35161200     310.
##  8 AAPL   2020-01-13  312.  317.  311.  317. 30383000     316.
##  9 AAPL   2020-01-14  317.  318.  312.  313. 40488600     312.
## 10 AAPL   2020-01-15  312.  316.  310.  311. 30480900     311.
## # ... with 28 more rows
…
